/* XPM */
static char *hide_prelight_png[] = {
/* columns rows colors chars-per-pixel */
"34 36 47 1 ",
"  c #2E3436",
". c #91918C",
"X c #9D9D99",
"o c #B6B6B2",
"O c #B6B6B3",
"+ c #BABAB7",
"@ c #BEBEBB",
"# c #C3C3C0",
"$ c #C7C7C4",
"% c #D4D4D3",
"& c #D5D5D3",
"* c #DADAD9",
"= c #DCDCDB",
"- c #DEDEDD",
"; c #DFDFDE",
": c #E0E0DF",
"> c #E1E1E0",
", c #E2E2E1",
"< c #E3E3E2",
"1 c #E4E4E3",
"2 c #E5E5E4",
"3 c #E6E6E5",
"4 c #E7E7E6",
"5 c #E8E8E7",
"6 c #E9E9E8",
"7 c #EAEAE9",
"8 c #EBEBEA",
"9 c #ECECEB",
"0 c #ECECEC",
"q c gray93",
"w c #EEEEED",
"e c #EFEFEE",
"r c #F0F0EF",
"t c gray94",
"y c #F1F1F1",
"u c gray95",
"i c #F3F3F2",
"p c #F3F3F3",
"a c #F4F4F4",
"s c gray96",
"d c #F6F6F6",
"f c gray97",
"g c #F8F8F7",
"h c #F9F9F9",
"j c gray98",
"k c white",
"l c None",
/* pixels */
"llllllllllllllllllllllllllllllllll",
"l&+OOOOOOOOOOOOOOOOOOOOOOOOOOOO+&l",
"&$jkkkkkkkkkkkkkkkkkkkkkkkkkkkkj$&",
"+gfddddddddddddddddddddddddddddfp+",
"OdssssssssssssssssssssssssssssssdO",
"OaaaaaaaaaaaaaaaaaaaaaaaaaaaaaaaaO",
"OppppppppppppppppppppppppppppppppO",
"OiiiiiiiiiiiiiiiiiiiiiiiiiiiiiiiiO",
"OuuuuuuuuuuuuuuuuuuuuuuuuuuuuuuuuO",
"OyyyyyyyyyyyyyyyyyyyyyyyyyyyyyyyyO",
"OttttttttttttttttttttttttttttttttO",
"OrrrrrrrrrrrrrrrrrrrrrrrrrrrrrrrrO",
"OeeeeeeeeeeeeeeeeeeeeeeeeeeeeeeeeO",
"OwwwwwwwwwwwwwwwwwwwwwwwwwwwwwwwwO",
"OqqqqqqqqqqqqqqqqqqqqqqqqqqqqqqqqO",
"O00000000000000000000000000000000O",
"O99999999999999999999999999999999O",
"O88888888888888888888888888888888O",
"O77777777777777777777777777777777O",
"O66666666666666666666666666666666O",
"O666666666666        666666666666O",
"O555555555555        555555555555O",
"O444444444444hhhhhhhh444444444444O",
"O33333333333333333333333333333333O",
"O22222222222222222222222222222222O",
"O22222222222222222222222222222222O",
"O11111111111111111111111111111111O",
"O<<<<<<<<<<<<<<<<<<<<<<<<<<<<<<<<O",
"O,,,,,,,,,,,,,,,,,,,,,,,,,,,,,,,,O",
"O,,,,,,,,,,,,,,,,,,,,,,,,,,,,,,,,O",
"O>>>>>>>>>>>>>>>>>>>>>>>>>>>>>>>>O",
"O::::::::::::::::::::::::::::::::O",
"+=;;;;;;;;;;;;;;;;;;;;;;;;;;;;;;*@",
"&+%----------------------------%o&",
"l#X............................X#l",
"llllllllllllllllllllllllllllllllll"
};
