/* XPM */
static char *hide_active_png[] = {
/* columns rows colors chars-per-pixel */
"34 36 4 1 ",
"  c #2E3436",
". c #F4F4F4",
"X c gray99",
"o c None",
/* pixels */
"oooooooooooooooooooooooooooooooooo",
"..................................",
"..................................",
"..................................",
"..................................",
"..................................",
"..................................",
"..................................",
"..................................",
"..................................",
"..................................",
"..................................",
"..................................",
"..................................",
"..................................",
"..................................",
"..................................",
"..................................",
"..................................",
"..................................",
".............        .............",
".............        .............",
".............XXXXXXXX.............",
"..................................",
"..................................",
"..................................",
"..................................",
"..................................",
"..................................",
"..................................",
"..................................",
"..................................",
"..................................",
"oooooooooooooooooooooooooooooooooo",
"oooooooooooooooooooooooooooooooooo",
"oooooooooooooooooooooooooooooooooo"
};
