/* XPM */
static char *maximize_toggled_active_png[] = {
/* columns rows colors chars-per-pixel */
"34 36 14 1 ",
"  c #2E3436",
". c #5B6062",
"X c #5C6062",
"o c #5D6264",
"O c #5E6364",
"+ c #E5E6E6",
"@ c #ECEDED",
"# c #EDEEEE",
"$ c #F4F4F4",
"% c gray96",
"& c gray98",
"* c #FBFBFB",
"= c gray99",
"- c None",
/* pixels */
"----------------------------------",
"$$$$$$$$$$$$$$$$$$$$$$$$$$$$$$$$$$",
"$$$$$$$$$$$$$$$$$$$$$$$$$$$$$$$$$$",
"$$$$$$$$$$$$$$$$$$$$$$$$$$$$$$$$$$",
"$$$$$$$$$$$$$$$$$$$$$$$$$$$$$$$$$$",
"$$$$$$$$$$$$$$$$$$$$$$$$$$$$$$$$$$",
"$$$$$$$$$$$$$$$$$$$$$$$$$$$$$$$$$$",
"$$$$$$$$$$$$$$$$$$$$$$$$$$$$$$$$$$",
"$$$$$$$$$$$$$$$$$$$$$$$$$$$$$$$$$$",
"$$$$$$$$$$$$$$$$$$$$$$$$$$$$$$$$$$",
"$$$$$$$$$$$$$$$$$$$$$$$$$$$$$$$$$$",
"$$$$$$$$$$$$$$$$$$$$$$$$$$$$$$$$$$",
"$$$$$$$$$$$$$$$$$$$$$$$$$$$$$$$$$$",
"$$$$$$$$$$$$$$$$$$$$$$$$$$$$$$$$$$",
"$$$$$$$$$$$$$X      .$$$$$$$$$$$$$",
"$$$$$$$$$$$$$        $$$$$$$$$$$$$",
"$$$$$$$$$$$$$  #==@  $$$$$$$$$$$$$",
"$$$$$$$$$$$$$  %$$%  $$$$$$$$$$$$$",
"$$$$$$$$$$$$$  $$$$  $$$$$$$$$$$$$",
"$$$$$$$$$$$$$  +$$+  $$$$$$$$$$$$$",
"$$$$$$$$$$$$$        $$$$$$$$$$$$$",
"$$$$$$$$$$$$$o      O$$$$$$$$$$$$$",
"$$$$$$$$$$$$$*======&$$$$$$$$$$$$$",
"$$$$$$$$$$$$$$$$$$$$$$$$$$$$$$$$$$",
"$$$$$$$$$$$$$$$$$$$$$$$$$$$$$$$$$$",
"$$$$$$$$$$$$$$$$$$$$$$$$$$$$$$$$$$",
"$$$$$$$$$$$$$$$$$$$$$$$$$$$$$$$$$$",
"$$$$$$$$$$$$$$$$$$$$$$$$$$$$$$$$$$",
"$$$$$$$$$$$$$$$$$$$$$$$$$$$$$$$$$$",
"$$$$$$$$$$$$$$$$$$$$$$$$$$$$$$$$$$",
"$$$$$$$$$$$$$$$$$$$$$$$$$$$$$$$$$$",
"$$$$$$$$$$$$$$$$$$$$$$$$$$$$$$$$$$",
"$$$$$$$$$$$$$$$$$$$$$$$$$$$$$$$$$$",
"----------------------------------",
"----------------------------------",
"----------------------------------"
};
