/* XPM */
static char *shade_toggled_pressed_png[] = {
/* columns rows colors chars-per-pixel */
"34 36 12 1 ",
"  c #2E3436",
". c #7E8181",
"X c #838686",
"o c #848787",
"O c #B6B6B3",
"+ c #BEBEBB",
"@ c #BFBFBC",
"# c #D1D1CF",
"$ c #D5D5D3",
"% c #D7D7D5",
"& c #D9D9D7",
"* c None",
/* pixels */
"**********************************",
"*#+OOOOOOOOOOOOOOOOOOOOOOOOOOOO+$*",
"#@%&&&&&&&&&&&&&&&&&&&&&&&&&&&&%@$",
"+%&&&&&&&&&&&&&&&&&&&&&&&&&&&&&&$+",
"O&&&&&&&&&&&&&&&&&&&&&&&&&&&&&&&&O",
"O&&&&&&&&&&&&&&&&&&&&&&&&&&&&&&&&O",
"O&&&&&&&&&&&&&&&&&&&&&&&&&&&&&&&&O",
"O&&&&&&&&&&&&&&&&&&&&&&&&&&&&&&&&O",
"O&&&&&&&&&&&&&&&&&&&&&&&&&&&&&&&&O",
"O&&&&&&&&&&&&&&&&&&&&&&&&&&&&&&&&O",
"O&&&&&&&&&&&&&&&&&&&&&&&&&&&&&&&&O",
"O&&&&&&&&&&&&&&&&&&&&&&&&&&&&&&&&O",
"O&&&&&&&&&&&&&&&&&&&&&&&&&&&&&&&&O",
"O&&&&&&&&&&&&&&&&&&&&&&&&&&&&&&&&O",
"O&&&&&&&&&&&&&&&&&&&&&&&&&&&&&&&&O",
"O&&&&&&&&&&&&&&&&&&&&&&&&&&&&&&&&O",
"O&&&&&&&&&&&.        X&&&&&&&&&&&O",
"O&&&&&&&&&&&&.      o&&&&&&&&&&&&O",
"O&&&&&&&&&&&&&.    o&&&&&&&&&&&&&O",
"O&&&&&&&&&&&&&&.  o&&&&&&&&&&&&&&O",
"O&&&&&&&&&&&&&&&.o&&&&&&&&&&&&&&&O",
"O&&&&&&&&&&&&&&&&&&&&&&&&&&&&&&&&O",
"O&&&&&&&&&&&&&&&&&&&&&&&&&&&&&&&&O",
"O&&&&&&&&&&&&&&&&&&&&&&&&&&&&&&&&O",
"O&&&&&&&&&&&&&&&&&&&&&&&&&&&&&&&&O",
"O&&&&&&&&&&&&&&&&&&&&&&&&&&&&&&&&O",
"O&&&&&&&&&&&&&&&&&&&&&&&&&&&&&&&&O",
"O&&&&&&&&&&&&&&&&&&&&&&&&&&&&&&&&O",
"O&&&&&&&&&&&&&&&&&&&&&&&&&&&&&&&&O",
"O&&&&&&&&&&&&&&&&&&&&&&&&&&&&&&&&O",
"O&&&&&&&&&&&&&&&&&&&&&&&&&&&&&&&&O",
"O&&&&&&&&&&&&&&&&&&&&&&&&&&&&&&&&O",
"+%&&&&&&&&&&&&&&&&&&&&&&&&&&&&&&$+",
"$@$&&&&&&&&&&&&&&&&&&&&&&&&&&&&$@$",
"*$+OOOOOOOOOOOOOOOOOOOOOOOOOOOO+$*",
"**********************************"
};
