/* XPM */
static char *title_1_active_png[] = {
/* columns rows colors chars-per-pixel */
"1 38 7 1 ",
"  c #91918C",
". c gray62",
"X c #DBDBD9",
"o c gray91",
"O c #F1F1F1",
"+ c #F4F4F4",
"@ c #FDFDFD",
/* pixels */
".",
"@",
"+",
"+",
"+",
"+",
"+",
"+",
"+",
"+",
"+",
"+",
"+",
"+",
"+",
"+",
"+",
"+",
"+",
"+",
"+",
"+",
"+",
"+",
"+",
"+",
"+",
"+",
"+",
"+",
"+",
"+",
"+",
"+",
"O",
"o",
"X",
" "
};
