/* XPM */
static char *title_1_inactive_png[] = {
/* columns rows colors chars-per-pixel */
"1 38 4 1 ",
"  c gray74",
". c #C0C0BD",
"X c #E8E8E7",
"o c gray98",
/* pixels */
" ",
"o",
"X",
"X",
"X",
"X",
"X",
"X",
"X",
"X",
"X",
"X",
"X",
"X",
"X",
"X",
"X",
"X",
"X",
"X",
"X",
"X",
"X",
"X",
"X",
"X",
"X",
"X",
"X",
"X",
"X",
"X",
"X",
"X",
"X",
"X",
"X",
"."
};
