/* XPM */
static char *top_left_inactive_png[] = {
/* columns rows colors chars-per-pixel */
"7 38 27 1 ",
"  c gray72",
". c #B9B9B9",
"X c gray73",
"o c #BCBCBC",
"O c gray74",
"+ c #C0C0BD",
"@ c gray78",
"# c #C8C8C8",
"$ c gray79",
"% c #CACACA",
"& c LightGray",
"* c gray83",
"= c #D5D5D5",
"- c gray90",
"; c #E7E7E7",
": c #E8E8E7",
"> c #E9E9E8",
", c gray92",
"< c #EDEDEC",
"1 c #EFEFEE",
"2 c #EFEFEF",
"3 c #F1F1F1",
"4 c #F3F3F3",
"5 c #F4F4F3",
"6 c #F8F8F8",
"7 c #F9F9F9",
"8 c None",
/* pixels */
"88888=$",
"888=%16",
"88$;73,",
"8*-5>::",
"8#4::::",
"&<>::::",
"@2:::::",
"O,:::::",
"O::::::",
"o::::::",
"X::::::",
"X::::::",
".::::::",
" ::::::",
" ::::::",
" ::::::",
" ::::::",
" ::::::",
" ::::::",
" ::::::",
" ::::::",
" ::::::",
" ::::::",
" ::::::",
" ::::::",
" ::::::",
" ::::::",
" ::::::",
" ::::::",
" ::::::",
" ::::::",
" ::::::",
" ::::::",
" ::::::",
" ::::::",
" ::::::",
" ::::::",
" ++++++"
};
